<?xml version="1.0" encoding="utf-8"?>
<!-- Generator: Adobe Illustrator 19.2.0, SVG Export Plug-In . SVG Version: 6.00 Build 0)  -->
<svg version="1.1" id="Capa_1" xmlns="http://www.w3.org/2000/svg" xmlns:xlink="http://www.w3.org/1999/xlink" x="0px" y="0px"
	 viewBox="0 0 140.8 80" style="enable-background:new 0 0 140.8 80;" xml:space="preserve">
<style type="text/css">
	.st0{fill:#FFFFFF;}
	.st1{fill:none;}
</style>
<title>cvudes</title>
<g>
	<g>
		<path class="st0" d="M92.8,45.4c-0.9,0.8-2,1.3-3.2,1.3c-0.1,0-0.1,0-0.2,0c-2.2-0.1-3.9-2.1-3.8-4.3v-0.1
			c-0.1-2.3,1.7-4.1,3.9-4.1c1.3,0,2.8,0.6,2.8,1.3v0.9h1.3v-1.1c0-1.6-2.4-2.4-4.1-2.4c0,0-0.1,0-0.2,0c-2.9,0.2-5.1,2.6-5,5.5
			c0,0,0,0.1,0,0.2c0,3,2.4,5.4,5.3,5.4c1.5,0.1,3-0.5,4.1-1.7l0.2-0.2l-0.8-1L92.8,45.4z"/>
		<path class="st0" d="M101.8,47.9h1.4l-3.9-10.6l-0.1-0.2H98l-3.8,10.3L94,47.9h1.4l1.3-3.5h3.8L101.8,47.9z M100,43.1h-2.9
			l1.3-3.6l0.1-0.2l0.1,0.2L100,43.1z"/>
		<path class="st0" d="M129,49.8h-1.1L124,60.3l-0.1,0.3h1.4l1.3-3.5h3.8l1.3,3.5h1.4l-4-10.6L129,49.8z M129.9,55.9H127l1.3-3.6
			l0.1-0.2l0.1,0.2L129.9,55.9z"/>
		<polygon class="st0" points="112.4,37.1 109.4,43.6 109.2,44 109,43.6 106,37.1 104.9,37.1 104,47.8 105.3,47.8 105.9,40 
			108.6,45.9 109.7,45.9 112.5,40.1 113.1,47.6 113.1,47.9 114.3,47.9 113.5,37.1 		"/>
		<path class="st0" d="M119.9,37.1h-3.5v10.8h1.3v-4.2h2.2c0.1,0,0.2,0,0.3,0c1.8-0.1,3.2-1.5,3.1-3.3c0-0.2,0-0.3,0-0.4
			C123.2,38.3,121.6,37,119.9,37.1z M119.9,42.4h-2.2v-4h2.2c0.2,0,0.3,0,0.4,0c1,0.1,1.8,1,1.7,2c0,0.1,0,0.2,0,0.3
			C121.9,41.8,120.9,42.5,119.9,42.4z"/>
		<path class="st0" d="M128.4,48c0.2,0,0.3,0,0.5,0c2-0.1,3.6-1.9,3.5-3.9v-7h-1.3v7c0,1.5-1.2,2.7-2.7,2.7s-2.7-1.2-2.7-2.7v-7
			h-1.3v7c0,0.2,0,0.3,0,0.5C124.6,46.6,126.4,48.2,128.4,48z"/>
		<path class="st0" d="M121.7,50.1v6.7v0.1c0,1.5-1.2,2.7-2.7,2.7s-2.7-1.2-2.7-2.7v-7H115v7c0,0.2,0,0.3,0,0.5c0.2,2,2,3.6,4,3.4
			c0.2,0,0.3,0,0.6,0c2.1-0.1,3.6-1.9,3.5-3.9v-7h-1.4V50.1z"/>
		<path class="st0" d="M137.4,48c1.6,0,3-1.3,3-3c0-2-1.7-2.7-3-3.3c-1.2-0.6-2.1-1-2.1-2v-0.1c0.2-0.9,1.1-1.6,2-1.4
			c0.9,0,1.6,0.4,1.6,0.8v0.9h1.3v-1c0-1.5-1.7-2-2.9-2h-0.1c-1.7-0.1-3.1,1.1-3.2,2.8c0,1.9,1.6,2.5,2.8,3.1s2.2,1,2.2,2.2v0.1
			c-0.1,0.9-0.9,1.7-1.9,1.6c-0.9,0-1.8-0.4-2.4-1.1l-0.2-0.3l-0.9,1l0.2,0.2c0.8,1,2,1.5,3.3,1.5C137.2,48,137.3,48,137.4,48z"/>
		<polygon class="st0" points="88.6,58.2 88.5,58.4 88.4,58.2 85.4,50 85.4,49.9 84,49.9 88,60.5 88,60.6 89.2,60.6 93.2,49.8 
			91.7,49.8 		"/>
		<rect x="94.5" y="49.9" class="st0" width="1.3" height="10.7"/>
		<path class="st0" d="M105.1,53c0-0.1,0-0.2,0-0.3c-0.1-1.6-1.5-2.9-3.2-2.8h-3.6v10.7h1.3v-4.5h1.7c0.3,0,0.6,0.2,0.7,0.5l2,4h1.5
			l-2.2-4.7C104.4,55.4,105.1,54.2,105.1,53z M103.5,52.9c0.1,1-0.7,1.9-1.7,2h-2.2v-3.7h2.2C102.7,51.2,103.4,52,103.5,52.9z
			 M104.9,60.2l-2.1-4.2l0,0l0.1,0.1L104.9,60.2z"/>
		<polygon class="st0" points="105.2,51.1 109,51.1 109,60.6 110.3,60.6 110.3,51.1 114.1,51.1 114.1,49.9 105.2,49.9 		"/>
		<path class="st0" d="M135.7,59.4v-9.5h-1.3v8.6c0,1.4,0.2,2.1,1.2,2.1h5.2v-1.2C140.8,59.4,135.7,59.4,135.7,59.4z"/>
	</g>
	<path class="st0" d="M77.4,34.6v-6.9h-5.1L60.4,61.1c-0.9,2.6-1.6,5.2-2.2,7.9H58c0,0-1.1-4.8-2.2-7.9l-8-22.5l-4.6-13
		c-0.2-0.7-0.5-1.4-0.9-2c-3.3-1.4-6.9-2.3-10.5-2.7c-1.2-0.2-2.3-0.2-3.3-0.2C12.2,20.6,0,33.1,0,49.6c0,16.8,11.9,29.9,28.9,29.9
		c4.8,0,9.5-1.1,13.8-3.2l-2.6-7l0,0C36.7,71.1,32.9,72,29,72C17.4,72,8.4,62.1,8.4,49.7c0-12.8,8.9-21.4,20.3-21.4
		c2.3,0,4.6,0.4,6.7,1c0.1,0.2,0.1,0.3,0.2,0.5l18.1,49.8h8.7l13.7-37.9h-3.3v-7L77.4,34.6L77.4,34.6z"/>
	<path class="st0" d="M128.3,79.3c1.2,0.3,2.3,0.4,3.5,0.4c1.7,0.1,3.5-0.4,4.9-1.3c1.2-1,2-2.4,2.2-4c0.3-1.1,0.3-2.3-0.1-3.3
		c-0.4-0.6-1.5-1.3-3.2-1.8c-0.1,0-0.2-0.1-0.2-0.1l0,0h-0.1c-2.4-0.7-2.8-1.7-2.6-2.5c0.1-0.4,0.3-0.8,0.5-1.2
		c0.3-0.3,0.7-0.5,1.1-0.4c0.5,0,1,0.3,1.2,0.7l0,0c0.1,0.5,0.1,1,0,1.5v0.2h4.2l0.7-3.7c-0.8-0.6-1.6-1-2.5-1.3
		c-1-0.3-2.1-0.4-3.2-0.4c-1.7-0.1-3.3,0.3-4.7,1.3c-1.2,1-2,2.4-2.2,4c-0.3,0.9-0.2,1.9,0.2,2.7l0,0c0.2,0.3,0.8,1,3,1.8h0.1
		c0.2,0.1,0.3,0.1,0.5,0.2h0.1c2.4,0.8,2.7,1.9,2.5,2.7c-0.1,0.5-0.3,1-0.7,1.4c-0.3,0.3-0.8,0.5-1.2,0.5c-0.5,0-1-0.2-1.2-0.6
		c0,0,0-0.1-0.1-0.1c-0.1-0.6-0.1-1.2,0.1-1.8l0.1-0.5h-4.4L126,78C126.7,78.5,127.4,78.9,128.3,79.3L128.3,79.3L128.3,79.3z
		 M111.8,79.4H124l1.1-5.6H121c0,0.2-0.1,0.3-0.1,0.3c-0.1,0.7-0.4,1.3-0.7,1.8l-0.1,0.1c-0.4,0.3-1,0.5-1.6,0.5h-0.4
		c-0.1,0-0.3-0.1-0.3-0.2c-0.1-0.1-0.1-0.2-0.1-0.4l0.7-3.6c0-0.2,0.2-0.4,0.4-0.4h3l0.5-2.5h-2.8c-0.1,0-0.3-0.1-0.3-0.2
		c-0.1-0.1-0.1-0.2-0.1-0.4l0.6-3.1c0-0.2,0.2-0.4,0.4-0.4h0.4c0.5-0.1,1.1,0.1,1.5,0.5c0.3,0.5,0.4,1.1,0.2,1.6h4.1l1-5H115
		l-0.5,2.4c0.2,0.2,0.3,0.4,0.4,0.6c0.1,0.5,0.1,0.9-0.1,1.4l-1.5,8.2c-0.1,0.4-0.2,0.9-0.5,1.3c-0.2,0.2-0.3,0.4-0.6,0.6
		L111.8,79.4L111.8,79.4L111.8,79.4z M85.6,64.9c0.2,0.2,0.4,0.4,0.4,0.7c0.1,0.4,0.1,0.9,0,1.3l-1.4,7.3c-0.2,0.8-0.3,1.5-0.3,2.3
		c0,0.4,0.1,0.8,0.3,1.2c0.3,0.7,0.9,1.2,1.6,1.5c0.9,0.4,1.9,0.5,2.9,0.5c1.2,0,2.4-0.2,3.6-0.6c0.9-0.4,1.7-1,2.3-1.8l0,0
		c0.3-0.4,0.5-0.9,0.7-1.4c0.3-0.9,0.5-1.9,0.7-2.8l1.2-6.3c0.1-0.4,0.2-0.8,0.4-1.2c0.1-0.3,0.4-0.5,0.6-0.7l0.4-2.3h-5.3L93.2,65
		c0.2,0.2,0.3,0.4,0.4,0.6v0.1c0,0.4,0,0.8-0.1,1.2L92,74.7c-0.1,0.6-0.3,1.1-0.6,1.6c-0.3,0.4-0.8,0.6-1.3,0.5
		c-0.5,0.1-1-0.2-1.2-0.7c-0.1-0.5-0.1-1,0-1.5l1.5-7.8c0.1-0.4,0.2-0.9,0.4-1.3c0.1-0.3,0.4-0.5,0.6-0.6l0.4-2.3H86L85.6,64.9
		L85.6,64.9L85.6,64.9z M97.2,79.4h6.1c2.6,0,4.5-0.4,5.5-1.2s1.8-2.3,2.2-4.6l1-5.3c0.4-2.2,0.3-3.8-0.4-4.6
		c-0.5-0.5-1.7-1.2-4.9-1.2h-6.3L99.9,65c0.1,0.2,0.3,0.4,0.3,0.6c0,0.1,0,0.1,0,0.2c0,0.4,0,0.8-0.1,1.2l-1.6,8.3
		c-0.1,0.4-0.2,0.8-0.4,1.2c-0.1,0.2-0.3,0.5-0.6,0.6L97.2,79.4L97.2,79.4L97.2,79.4z M104.1,76.4h-0.6c-0.2,0-0.5-0.2-0.5-0.4v-0.1
		l1.9-10c0-0.2,0.2-0.4,0.4-0.4h0.6c0.5-0.1,1.1,0.1,1.5,0.5v0.1c0.2,0.5,0.2,1.1,0.1,1.6l-1.2,6.6c-0.1,0.6-0.3,1.2-0.8,1.7
		C105.2,76.2,104.6,76.4,104.1,76.4L104.1,76.4L104.1,76.4z"/>
	<g>
		<polygon class="st1" points="126.4,13.8 126.4,13.6 126.4,6.8 119.5,6.8 119.5,13.8 112.5,13.8 112.5,20.6 119.3,20.6 119.5,20.6 
			126.4,20.6 		"/>
		<rect x="77.5" y="13.8" class="st1" width="6.8" height="6.8"/>
		<rect x="105.5" y="20.8" class="st1" width="6.8" height="6.7"/>
		<rect x="78" y="0.3" class="st0" width="5.8" height="5.8"/>
		<rect x="98.9" y="0.3" class="st0" width="5.8" height="5.8"/>
		<rect x="120" y="0.3" class="st0" width="5.8" height="5.8"/>
		<rect x="113" y="7.3" class="st0" width="5.8" height="5.8"/>
		<rect x="127.1" y="7.3" class="st0" width="5.8" height="5.8"/>
		<rect x="120" y="21.3" class="st0" width="5.8" height="5.8"/>
		<rect x="85" y="7.3" class="st0" width="5.8" height="5.8"/>
		<rect x="63.9" y="7.3" class="st0" width="5.8" height="5.8"/>
		<rect x="113" y="21.3" class="st0" width="5.8" height="5.8"/>
		<rect x="78" y="7.3" class="st0" width="5.8" height="5.8"/>
		<rect x="85" y="28.3" class="st0" width="5.8" height="5.8"/>
		<rect x="106" y="7.3" class="st0" width="5.8" height="5.8"/>
		<rect x="134.1" y="14.3" class="st0" width="5.8" height="5.8"/>
		<rect x="127.1" y="14.3" class="st0" width="5.8" height="5.8"/>
		<rect x="85" y="21.3" class="st0" width="5.8" height="5.8"/>
		<rect x="99" y="21.3" class="st0" width="5.8" height="5.8"/>
		<rect x="106" y="28.3" class="st0" width="5.8" height="5.8"/>
		<rect x="71" y="14.3" class="st0" width="5.8" height="5.8"/>
		<rect x="78" y="21.3" class="st0" width="5.8" height="5.8"/>
		<rect x="85" y="14.3" class="st0" width="5.8" height="5.8"/>
		<rect x="92" y="14.3" class="st0" width="5.8" height="5.8"/>
		<rect x="106" y="14.3" class="st0" width="5.8" height="5.8"/>
		<rect x="134.1" y="21.3" class="st0" width="5.8" height="5.8"/>
	</g>
</g>
</svg>
